individual2.Rmd
…
## Warning in read_fun(path = enc2native(normalizePath(path)), sheet_i = sheet, :
## Expecting logical in J26724 / R26724C10: got a date

## Warning in read_fun(path = enc2native(normalizePath(path)), sheet_i = sheet, :
## Expecting logical in J32616 / R32616C10: got a date

## Warning in read_fun(path = enc2native(normalizePath(path)), sheet_i = sheet, :
## Expecting logical in J36166 / R36166C10: got a date

## Warning in read_fun(path = enc2native(normalizePath(path)), sheet_i = sheet, :
## Expecting logical in J36432 / R36432C10: got a date

StateCounty

## # A tibble: 39,738 x 11
##    Territory `State Name` `State Code` `City Code` `City Name` `County Code`
##    <chr>     <chr>        <chr>        <chr>       <chr>       <chr>        
##  1 U         ALABAMA      1            10          ABBEVILLE   67           
##  2 U         ALABAMA      1            50          ALBERTVILLE 95           
##  3 U         ALABAMA      1            60          ALEXANDER  123          
##  4 U         ALABAMA      01           0070        ALICEVILLE  107          
##  5 U         ALABAMA      1            90          ANDALUSIA   39           
##  6 U         ALABAMA      1            96          ANDERSON    77           
##  7 U         ALABAMA      1            100         ANNISTON    15           
##  8 U         ALABAMA      1            101         ANNISTON A 15           
##  9 U         ALABAMA      1            103         ANSLEY      109          
## 10 U         ALABAMA      1            110         ARAB        95           
## #  with 39,728 more rows, and 5 more variables: `County Name` <chr>, `Country
## #   Code` <chr>, `Old City Name` <chr>, `Date Record Added` <lgl>, `Duty
## #   Station Code` <chr>
…
