Individual3
…
#3) Create a data frame containing the most dangerous vehicle make in each state. The number of persons fatally hit in the vehicle make is used to assess the (non-)safety of a make. Make sure to handle the missing values appropriately. (look up variable MAKE)

DangerousVehicle <- acc1 %>%
  group_by(STATE, MAKE) %>%
  summarize(nFatal = n())

## `summarise()` has grouped output by 'STATE'. You can override using the `.groups` argument.

DangerousVehicle

## # A tibble: 2,324 x 3
## # Groups:   STATE [51]
##    STATE  MAKE nFatal
##    <int> <int>  <int>
##  1     1     2     61
##  2     1     3      4
##  3     1     6     32
##  4     1     7    116
##  5     1     9      4
##  6     1    12    270
##  7     1    13     13
##  8     1    14     29
##  9     1    18     31
## 10     1    19     19
## #  with 2,314 more rows

MostDangerous <- DangerousVehicle %>%
  group_by(STATE) %>%
  filter(nFatal == max(nFatal))
MostDangerous

## # A tibble: 52 x 3
## # Groups:   STATE [51]
##    STATE  MAKE nFatal
##    <int> <int>  <int>
##  1     1    20    293
##  2     2    20     29
##  3     4    12    305
##  4     5    20    171
##  5     6    49   1079
##  6     8    12    176
##  7     9    37     63
##  8    10    NA     40
##  9    11    37     13
## 10    11    NA     13
## #  with 42 more rows

MostDangerous1 <- na.omit(MostDangerous)
MostDangerous1

## # A tibble: 44 x 3
## # Groups:   STATE [44]
##    STATE  MAKE nFatal
##    <int> <int>  <int>
##  1     1    20    293
##  2     2    20     29
##  3     4    12    305
##  4     5    20    171
##  5     6    49   1079
##  6     8    12    176
##  7     9    37     63
##  8    11    37     13
##  9    12    12    930
## 10    13    12    608
## #  with 34 more rows
…
## Warning in read_fun(path = enc2native(normalizePath(path)), sheet_i = sheet, :
## Expecting logical in J26724 / R26724C10: got a date

## Warning in read_fun(path = enc2native(normalizePath(path)), sheet_i = sheet, :
## Expecting logical in J32616 / R32616C10: got a date

## Warning in read_fun(path = enc2native(normalizePath(path)), sheet_i = sheet, :
## Expecting logical in J36166 / R36166C10: got a date

## Warning in read_fun(path = enc2native(normalizePath(path)), sheet_i = sheet, :
## Expecting logical in J36432 / R36432C10: got a date

StateCounty

## # A tibble: 39,738 x 11
##    Territory `State Name` `State Code` `City Code` `City Name` `County Code`
##    <chr>     <chr>        <chr>        <chr>       <chr>       <chr>        
##  1 U         ALABAMA      1            10          ABBEVILLE   67           
##  2 U         ALABAMA      1            50          ALBERTVILLE 95           
##  3 U         ALABAMA      1            60          ALEXANDER  123          
##  4 U         ALABAMA      01           0070        ALICEVILLE  107          
##  5 U         ALABAMA      1            90          ANDALUSIA   39           
##  6 U         ALABAMA      1            96          ANDERSON    77           
##  7 U         ALABAMA      1            100         ANNISTON    15           
##  8 U         ALABAMA      1            101         ANNISTON A 15           
##  9 U         ALABAMA      1            103         ANSLEY      109          
## 10 U         ALABAMA      1            110         ARAB        95           
## #  with 39,728 more rows, and 5 more variables: `County Name` <chr>, `Country
## #   Code` <chr>, `Old City Name` <chr>, `Date Record Added` <lgl>, `Duty
## #   Station Code` <chr>
…
## 'data.frame':    15537 obs. of  6 variables:
##  $ long     : num  -87.5 -87.5 -87.5 -87.5 -87.6 ...
##  $ lat      : num  30.4 30.4 30.4 30.3 30.3 ...
##  $ group    : num  1 1 1 1 1 1 1 1 1 1 ...
##  $ order    : int  1 2 3 4 5 6 7 8 9 10 ...
##  $ region   : chr  "alabama" "alabama" "alabama" "alabama" ...
##  $ subregion: chr  NA NA NA NA ...

justStates <- StateCounty %>%
  distinct(`State Code`, `State Name`)
justStates

## # A tibble: 52 x 2
##    `State Name`         `State Code`
##    <chr>                <chr>       
##  1 ALABAMA              1           
##  2 ALABAMA              01          
##  3 ALASKA               2           
##  4 ARIZONA              4           
##  5 ARKANSAS             5           
##  6 CALIFORNIA           6           
##  7 COLORADO             8           
##  8 CONNECTICUT          9           
##  9 DELAWARE             10          
## 10 DISTRICT OF COLUMBIA 11          
## #  with 42 more rows

MostDangerous2 <- MostDangerous1 %>%
  mutate(STATE = as.character(STATE)) %>%
  inner_join(justStates, by = c('STATE' = "State Code"))
MostDangerous2

## # A tibble: 44 x 4
## # Groups:   STATE [44]
##    STATE  MAKE nFatal `State Name`        
##    <chr> <int>  <int> <chr>               
##  1 1        20    293 ALABAMA             
##  2 2        20     29 ALASKA              
##  3 4        12    305 ARIZONA             
##  4 5        20    171 ARKANSAS            
##  5 6        49   1079 CALIFORNIA          
##  6 8        12    176 COLORADO            
##  7 9        37     63 CONNECTICUT         
##  8 11       37     13 DISTRICT OF COLUMBIA
##  9 12       12    930 FLORIDA             
## 10 13       12    608 GEORGIA             
## #  with 34 more rows
…
MostDangerous3 <- MostDangerous2 %>%
  select(`State Name`, MAKE)

## Adding missing grouping variables: `STATE`

MostDangerous3

## # A tibble: 44 x 3
## # Groups:   STATE [44]
##    STATE `State Name`          MAKE
##    <chr> <chr>                <int>
##  1 1     ALABAMA                 20
##  2 2     ALASKA                  20
##  3 4     ARIZONA                 12
##  4 5     ARKANSAS                20
##  5 6     CALIFORNIA              49
##  6 8     COLORADO                12
##  7 9     CONNECTICUT             37
##  8 11    DISTRICT OF COLUMBIA    37
##  9 12    FLORIDA                 12
## 10 13    GEORGIA                 12
## #  with 34 more rows

states1$region <- toupper(states1$region)

StateLonLat <- MostDangerous3 %>%
  group_by(`State Name`, MAKE) %>%
  right_join(states1, by = c('State Name' = 'region')) %>%
  summarize(long = mean(long),
            lat = mean(lat)) %>%
  na.omit(MAKE)

## `summarise()` has grouped output by 'State Name'. You can override using the `.groups` argument.

StateLonLat

## # A tibble: 42 x 4
## # Groups:   State Name [42]
##    `State Name`          MAKE   long   lat
##    <chr>                <int>  <dbl> <dbl>
##  1 ALABAMA                 20  -86.9  31.7
##  2 ARIZONA                 12 -113.   34.5
##  3 ARKANSAS                20  -91.3  34.6
##  4 CALIFORNIA              49 -121.   36.7
##  5 COLORADO                12 -105.   38.6
##  6 CONNECTICUT             37  -72.7  41.4
##  7 DISTRICT OF COLUMBIA    37  -77.1  38.9
##  8 FLORIDA                 12  -83.4  28.7
##  9 GEORGIA                 12  -82.6  32.2
## 10 IDAHO                   12 -115.   45.5
## #  with 32 more rows

StateLonLat1 <- StateLonLat %>%
  ungroup() %>%
  select(MAKE, long, lat)
StateLonLat1

## # A tibble: 42 x 3
##     MAKE   long   lat
##    <int>  <dbl> <dbl>
##  1    20  -86.9  31.7
##  2    12 -113.   34.5
##  3    20  -91.3  34.6
##  4    49 -121.   36.7
##  5    12 -105.   38.6
##  6    37  -72.7  41.4
##  7    37  -77.1  38.9
##  8    12  -83.4  28.7
##  9    12  -82.6  32.2
## 10    12 -115.   45.5
## #  with 32 more rows
…
## 'data.frame':    87949 obs. of  6 variables:
##  $ long     : num  -86.5 -86.5 -86.5 -86.6 -86.6 ...
##  $ lat      : num  32.3 32.4 32.4 32.4 32.4 ...
##  $ group    : num  1 1 1 1 1 1 1 1 1 1 ...
##  $ order    : int  1 2 3 4 5 6 7 8 9 10 ...
##  $ region   : chr  "alabama" "alabama" "alabama" "alabama" ...
##  $ subregion: chr  "autauga" "autauga" "autauga" "autauga" ...

StatesandCounties <- StateCounty %>%
  distinct(`State Code`, `State Name`, `County Code`, `County Name`)
StatesandCounties

## # A tibble: 3,150 x 4
##    `State Name` `State Code` `County Code` `County Name`
##    <chr>               <dbl>         <dbl> <chr>        
##  1 ALABAMA                 1            67 HENRY        
##  2 ALABAMA                 1            95 MARSHALL     
##  3 ALABAMA                 1           123 TALLAPOOSA   
##  4 ALABAMA                 1           107 PICKENS      
##  5 ALABAMA                 1            39 COVINGTON    
##  6 ALABAMA                 1            77 LAUDERDALE   
##  7 ALABAMA                 1            15 CALHOUN      
##  8 ALABAMA                 1           109 PIKE         
##  9 ALABAMA                 1            83 LIMESTONE    
## 10 ALABAMA                 1            73 JEFFERSON    
## #  with 3,140 more rows

fatalStCount <- acc1 %>%
  group_by(STATE, COUNTY) %>%
  summarize(nFatal = n())

## `summarise()` has grouped output by 'STATE'. You can override using the `.groups` argument.

fatalStCount

## # A tibble: 2,840 x 3
## # Groups:   STATE [51]
##    STATE COUNTY nFatal
##    <int>  <int>  <int>
##  1     1      1     35
##  2     1      3     44
##  3     1      5     12
##  4     1      7     16
##  5     1      9     48
##  6     1     11     11
##  7     1     13     34
##  8     1     15     55
##  9     1     17      6
## 10     1     19     15
## #  with 2,830 more rows

fatalStCount2 <- fatalStCount %>%
  group_by(nFatal) %>%
  right_join(StatesandCounties, by = c('STATE' = 'State Code', 'COUNTY' = 'County Code'))
fatalStCount2

## # A tibble: 3,150 x 5
## # Groups:   nFatal [200]
##    STATE COUNTY nFatal `State Name` `County Name`
##    <dbl>  <dbl>  <int> <chr>        <chr>        
##  1     1      1     35 ALABAMA      AUTAUGA      
##  2     1      3     44 ALABAMA      BALDWIN      
##  3     1      5     12 ALABAMA      BARBOUR      
##  4     1      7     16 ALABAMA      BIBB         
##  5     1      9     48 ALABAMA      BLOUNT       
##  6     1     11     11 ALABAMA      BULLOCK      
##  7     1     13     34 ALABAMA      BUTLER       
##  8     1     15     55 ALABAMA      CALHOUN      
##  9     1     17      6 ALABAMA      CHAMBERS     
## 10     1     19     15 ALABAMA      CHEROKEE     
## #  with 3,140 more rows

counties$region <- toupper(counties$region)
counties$subregion <- toupper(counties$subregion)

fatalStCount3 <- fatalStCount2 %>%
  left_join(counties, by = c('State Name' = 'region', 'County Name' = 'subregion'))
fatalStCount3

## # A tibble: 86,893 x 9
## # Groups:   nFatal [200]
##    STATE COUNTY nFatal `State Name` `County Name`  long   lat group order
##    <dbl>  <dbl>  <int> <chr>        <chr>         <dbl> <dbl> <dbl> <int>
##  1     1      1     35 ALABAMA      AUTAUGA       -86.5  32.3     1     1
##  2     1      1     35 ALABAMA      AUTAUGA       -86.5  32.4     1     2
##  3     1      1     35 ALABAMA      AUTAUGA       -86.5  32.4     1     3
##  4     1      1     35 ALABAMA      AUTAUGA       -86.6  32.4     1     4
##  5     1      1     35 ALABAMA      AUTAUGA       -86.6  32.4     1     5
##  6     1      1     35 ALABAMA      AUTAUGA       -86.6  32.4     1     6
##  7     1      1     35 ALABAMA      AUTAUGA       -86.6  32.4     1     7
##  8     1      1     35 ALABAMA      AUTAUGA       -86.6  32.4     1     8
##  9     1      1     35 ALABAMA      AUTAUGA       -86.6  32.4     1     9
## 10     1      1     35 ALABAMA      AUTAUGA       -86.6  32.4     1    10
## #  with 86,883 more rows
…
